<?xml version="1.0" encoding="utf-8"?>
<!-- Generator: Adobe Illustrator 18.0.0, SVG Export Plug-In . SVG Version: 6.00 Build 0)  -->
<!DOCTYPE svg PUBLIC "-//W3C//DTD SVG 1.1//EN" "http://www.w3.org/Graphics/SVG/1.1/DTD/svg11.dtd">
<svg version="1.1" id="Layer_1" xmlns="http://www.w3.org/2000/svg" xmlns:xlink="http://www.w3.org/1999/xlink" x="0px" y="0px"
	 viewBox="36.8 254.9 800 400" enable-background="new 36.8 254.9 800 400" xml:space="preserve">
<linearGradient id="SVGID_1_" gradientUnits="userSpaceOnUse" x1="48.0392" y1="415.0392" x2="1093.7909" y2="415.0392" gradientTransform="matrix(0.765 0 0 -0.765 0 772.38)">
	<stop  offset="0" style="stop-color:#884A9D"/>
	<stop  offset="1" style="stop-color:#AD7CB6"/>
</linearGradient>
<rect x="36.8" y="254.9" fill="url(#SVGID_1_)" width="800" height="400"/>
<g>
	<path fill="#FFFFFF" d="M264.5,418.3h-19v-6.7h46v6.7h-19v56.2h-8V418.3z"/>
	<path fill="#FFFFFF" d="M313.3,426.7c11.9,0,18.6,8.5,18.6,21.9c0,1.6-0.1,3.2-0.3,4.3h-31.4c0.6,10.1,6.6,16.4,15.5,16.4
		c4.4,0,8.1-1.4,11.6-3.6l2.8,5.1c-4.1,2.6-9,4.8-15.4,4.8c-12.5,0-22.3-9.1-22.3-24.3C292.3,436,302.6,426.7,313.3,426.7z
		 M325,447.7c0-9.5-4.2-14.8-11.5-14.8c-6.5,0-12.5,5.4-13.4,14.8H325z"/>
	<path fill="#FFFFFF" d="M362.3,426.7c6.2,0,10.4,2.6,13.6,5.6l-3.9,5.1c-2.8-2.4-5.7-4.1-9.4-4.1c-8.4,0-14.6,7.3-14.6,18
		c0,10.7,5.9,17.8,14.4,17.8c4.4,0,8.1-2.2,10.9-4.7l3.6,5.1c-4.2,3.8-9.6,6-15.1,6c-12.4,0-21.9-8.9-21.9-24.3
		C339.9,435.6,350.4,426.7,362.3,426.7z"/>
	<path fill="#FFFFFF" d="M387.1,406.2h7.9v18.6l-0.3,9.6c4.4-4.2,9.1-7.7,15.5-7.7c9.8,0,14.2,6.3,14.2,18.2v29.6h-7.9V446
		c0-8.7-2.7-12.5-8.8-12.5c-4.8,0-8,2.5-12.8,7.2v33.8H387L387.1,406.2L387.1,406.2z"/>
	<path fill="#FFFFFF" d="M464.4,410.4c7.6,0,13.5,3.6,17.2,7.8l-4.5,5.1c-3.3-3.6-7.3-5.9-12.5-5.9c-12,0-19.9,9.8-19.9,25.4
		c0,15.8,7.6,25.8,19.5,25.8c6,0,10.4-2.5,14.5-7l4.5,4.9c-5,5.7-11.2,9.1-19.2,9.1c-15.8,0-27.5-12.1-27.5-32.6
		C436.4,422.8,448.3,410.4,464.4,410.4z"/>
	<path fill="#FFFFFF" d="M512.1,426.7c11.4,0,21.6,8.9,21.6,24.6c0,15.4-10.1,24.3-21.6,24.3c-11.4,0-21.6-8.9-21.6-24.3
		C490.5,435.6,500.7,426.7,512.1,426.7z M512.1,469.1c8,0,13.4-7.2,13.4-17.8c0-10.7-5.4-18-13.4-18c-8,0-13.4,7.3-13.4,18
		C498.7,461.9,504.1,469.1,512.1,469.1z"/>
	<path fill="#FFFFFF" d="M545.9,427.9h6.5l0.7,6.7h0.3c4.4-4.4,9.2-7.9,15.7-7.9c9.8,0,14.2,6.3,14.2,18.2v29.6h-7.9V446
		c0-8.7-2.7-12.5-8.8-12.5c-4.8,0-8,2.5-12.8,7.2v33.8h-7.9L545.9,427.9L545.9,427.9z"/>
	<path fill="#FFFFFF" d="M597.2,463.9c4.1,3.3,8.1,5.6,13.7,5.6c6.2,0,9.2-3.3,9.2-7.3c0-4.8-5.6-6.9-10.7-8.8
		c-6.6-2.4-13.9-5.6-13.9-13.4c0-7.5,5.9-13.3,16-13.3c5.9,0,10.9,2.4,14.5,5.3l-3.8,5c-3.2-2.4-6.5-4.1-10.7-4.1
		c-5.9,0-8.5,3.2-8.5,6.7c0,4.4,5.1,6,10.4,8c6.7,2.5,14.2,5.3,14.2,14.1c0,7.6-6,13.9-17.1,13.9c-6.6,0-13-2.8-17.4-6.4
		L597.2,463.9z"/>
</g>
</svg>
